{
  "name": "CategoryQuestion",
  "fields": [
    {
      "fieldName": "id",
      "fieldType": "Long"
    },
    {
      "fieldName": "name",
      "fieldType": "String"
    },
    {
      "fieldName": "categoryQuestionType",
      "fieldType": "CategoryQuestionType",
      "fieldValues": "CHTG,HDSD,TLNV"
    },
    {
      "fieldName": "createdDate",
      "fieldType": "Instant"
    },
    {
      "fieldName": "createdBy",
      "fieldType": "String"
    },
    {
      "fieldName": "updateDate",
      "fieldType": "Instant"
    },
    {
      "fieldName": "updateBy",
      "fieldType": "String"
    }
  ],
  "relationships": [
    {
      "relationshipType": "one-to-many",
      "otherEntityName": "question",
      "otherEntityRelationshipName": "categoryQuestion",
      "relationshipName": "question"
    }
  ],
  "entityTableName": "category_question",
  "dto": "mapstruct",
  "pagination": "no",
  "service": "serviceImpl",
  "jpaMetamodelFiltering": false,
  "fluentMethods": true,
  "readOnly": false,
  "embedded": false,
  "applications": "*",
  "changelogDate": "20211018072039"
}
