{
  "name": "HCMessage",
  "fields": [
    {
      "fieldName": "id",
      "fieldType": "Long"
    },
    {
      "fieldName": "content",
      "fieldType": "byte[]",
      "fieldTypeBlobContent": "any"
    },
    {
      "fieldName": "fromUser",
      "fieldType": "String"
    },
    {
      "fieldName": "toUser",
      "fieldType": "String"
    },
    {
      "fieldName": "isInOn",
      "fieldType": "Boolean"
    },
    {
      "fieldName": "sendDate",
      "fieldType": "Instant"
    },
    {
      "fieldName": "roomId",
      "fieldType": "String"
    },
    {
      "fieldName": "receiveDate",
      "fieldType": "Instant"
    },
    {
      "fieldName": "startedDate",
      "fieldType": "Instant"
    },
    {
      "fieldName": "endDate",
      "fieldType": "Instant"
    }
  ],
  "relationships": [
    {
      "relationshipType": "one-to-many",
      "otherEntityName": "hCFileUpload",
      "otherEntityRelationshipName": "hCMessage",
      "relationshipName": "hCFileUpload"
    },
    {
      "relationshipType": "many-to-one",
      "otherEntityName": "hCSupportBook",
      "otherEntityRelationshipName": "hCMessage",
      "relationshipName": "hCSupportBook"
    }
  ],
  "entityTableName": "hc_message",
  "dto": "mapstruct",
  "pagination": "no",
  "service": "serviceImpl",
  "jpaMetamodelFiltering": false,
  "fluentMethods": true,
  "readOnly": false,
  "embedded": false,
  "applications": "*",
  "changelogDate": "20211115082836"
}
